Whodunnit? Network Analysis of British Mysteries - Chris Cote's Blog
…
characters <- read_csv("https://raw.githubusercontent.com/cjcote/blog/master/public/characters.csv")

characters

## # A tibble: 9,932 x 4
##    character      show  season episode
##    <chr>          <chr>  <dbl>   <dbl>
##  1 Brenda Blethyn Vera       1       1
##  2 David Leon     Vera       1       1
##  3 Wunmi Mosaku   Vera       1       1
##  4 Paul Ritter    Vera       1       1
##  5 Neil Armstrong Vera       1       1
##  6 Juliet Aubrey  Vera       1       1
##  7 Craig Conway   Vera       1       1
##  8 Philip Correia Vera       1       1
##  9 Sam Fender     Vera       1       1
## 10 Murray Head    Vera       1       1
## # … with 9,922 more rows
…
Yes, definitely in Doc Martin most frequently. Impressive that she has been in more than one episode of Midsomer though!

What episode has the most people?

characters %>% 
  group_by(show, season, episode) %>% 
  summarise(n = n()) %>% 
  ungroup() %>% 
  arrange(-n)

## # A tibble: 601 x 4
##    show             season episode     n
##    <chr>             <dbl>   <dbl> <int>
##  1 Midsomer Murders      1       2   165
##  2 Midsomer Murders      1       3   165
##  3 Midsomer Murders      1       4   165
##  4 Midsomer Murders      1       1   163
##  5 Midsomer Murders      1       5   148
##  6 Midsomer Murders      1       6   120
##  7 Midsomer Murders      1       7    75
##  8 Inspector Morse       1       1    60
##  9 Dr Who                1       1    48
## 10 Dr Who                1       4    47
## # … with 591 more rows

Could there really be 165 characters in the second episode of Midsomer?

characters %>% filter(show == "Midsomer Murders", season == 1, episode == 2) 

## # A tibble: 165 x 4
##    character       show             season episode
##    <chr>           <chr>             <dbl>   <dbl>
##  1 John Nettles    Midsomer Murders      1       2
##  2 Daniel Casey    Midsomer Murders      1       2
##  3 Jane Wymark     Midsomer Murders      1       2
##  4 Laura Howard    Midsomer Murders      1       2
##  5 Barry Jackson   Midsomer Murders      1       2
##  6 Anna Massey     Midsomer Murders      1       2
##  7 Joanna David    Midsomer Murders      1       2
##  8 David Troughton Midsomer Murders      1       2
##  9 John Shrapnel   Midsomer Murders      1       2
## 10 Jane Booker     Midsomer Murders      1       2
## # … with 155 more rows
…
