Grandpa in Law in WWII - Chris Cote's Blog
…
jr_points

## # A tibble: 25 x 11
##    date_arrived date_left  location what    lat   lon new_location country
##    <date>       <date>     <chr>    <chr> <dbl> <dbl>        <dbl> <chr>  
##  1 1943-03-08   1943-04-03 Fort Di… US A…  40.0 -74.7            0 USA    
##  2 1943-04-03   1943-07-01 Miami B… Basi…  25.8 -80.2            1 USA    
##  3 1943-07-01   1943-10-01 Fort Be… Topo…  38.7 -77.2            2 USA    
##  4 1943-10-01   1943-12-15 Will Ro… ENGR…  35.4 -97.6            3 USA    
##  5 1943-12-15   1944-04-14 Nashvil… 957t…  36.2 -87.1            4 USA    
##  6 1944-04-14   1944-12-08 DeRidde… <NA>   30.9 -93.3            5 USA    
##  7 1944-12-08   1945-01-01 Greensb… <NA>   36.1 -80.0            6 USA    
##  8 1945-01-01   1945-01-13 Camp Pa… <NA>   37.1 -76.5            7 USA    
##  9 1945-01-13   1945-01-25 NYC, NY… OVER…  40.7 -74.3            8 USA    
## 10 1945-01-25   1945-01-25 Naples,… LAND…  40.9  14.2            9 Italy  
## # … with 15 more rows, and 3 more variables: lead_country <chr>, map <chr>,
## #   map2 <dbl>
…
jr_labels

## # A tibble: 25 x 10
##    date_arrived date_left  location   lat   lon map   label country lead_country
##    <date>       <date>     <chr>    <dbl> <dbl> <chr> <chr> <chr>   <chr>       
##  1 1943-03-08   1943-04-03 Fort Di…  40.0 -74.7 USAU… Fort… USA     USA         
##  2 1943-04-03   1943-07-01 Miami B…  25.8 -80.2 USAU… Miam… USA     USA         
##  3 1943-07-01   1943-10-01 Fort Be…  38.7 -77.2 USAU… Fort… USA     USA         
##  4 1943-10-01   1943-12-15 Will Ro…  35.4 -97.6 USAU… Will… USA     USA         
##  5 1943-12-15   1944-04-14 Nashvil…  36.2 -87.1 USAU… Nash… USA     USA         
##  6 1944-04-14   1944-12-08 DeRidde…  30.9 -93.3 USAU… DeRi… USA     USA         
##  7 1944-12-08   1945-01-01 Greensb…  36.1 -80.0 USAU… Gree… USA     USA         
##  8 1945-01-01   1945-01-13 Camp Pa…  37.1 -76.5 USAU… Camp… USA     USA         
##  9 1945-01-13   1945-01-25 NYC, NY…  40.7 -74.3 USAI… NYC,… USA     Italy       
## 10 1945-01-25   1945-01-25 Naples,…  40.9  14.2 Ital… Napl… Italy   Italy       
## # … with 15 more rows, and 1 more variable: duration <dbl>
…
