…
ma_sector <- efs %>% as_tibble() %>% 
  filter(State == "MA") %>% 
  group_by(Sector, Year, LocalHourID) %>% 
  summarise(LoadMW = sum(LoadMW)) %>% 
  ungroup()
  
ma_sector

## # A tibble: 210,240 x 4
##    Sector      Year LocalHourID LoadMW
##    <chr>      <int>       <int>  <dbl>
##  1 Commercial  2018           1  2352.
##  2 Commercial  2018           2  2275.
##  3 Commercial  2018           3  2201.
##  4 Commercial  2018           4  2122.
##  5 Commercial  2018           5  2085.
##  6 Commercial  2018           6  2088.
##  7 Commercial  2018           7  2058.
##  8 Commercial  2018           8  2105.
##  9 Commercial  2018           9  2057.
## 10 Commercial  2018          10  2123.
## # … with 210,230 more rows
…
