John Ross in WWII
…
jr_labels

## # A tibble: 25 x 10
##    date_arrived date_left  location   lat   lon label country lead_country map  
##    <date>       <date>     <chr>    <dbl> <dbl> <chr> <chr>   <chr>        <fct>
##  1 1943-03-08   1943-04-03 Fort Di  40.0 -74.7 Fort USA     USA          USAU
##  2 1943-04-03   1943-07-01 Miami B  25.8 -80.2 Miam USA     USA          USAU
##  3 1943-07-01   1943-10-01 Fort Be  38.7 -77.2 Fort USA     USA          USAU
##  4 1943-10-01   1943-12-15 Will Ro  35.4 -97.6 Will USA     USA          USAU
##  5 1943-12-15   1944-04-14 Nashvil  36.2 -87.1 Nash USA     USA          USAU
##  6 1944-04-14   1944-12-08 DeRidde  30.9 -93.3 DeRi USA     USA          USAU
##  7 1944-12-08   1945-01-01 Greensb  36.1 -80.0 Gree USA     USA          USAU
##  8 1945-01-01   1945-01-13 Camp Pa  37.1 -76.5 Camp USA     USA          USAU
##  9 1945-01-13   1945-01-25 NYC, NY  40.7 -74.3 NYC, USA     Italy        USAI
## 10 1945-01-25   1945-01-25 Naples,  40.9  14.2 Napl Italy   Italy        Ital
## #  with 15 more rows, and 1 more variable: duration <dbl>
…
