…
library(ggraph)

## Warning: package 'ggraph' was built under R version 3.5.2

library(britishcharacters) #remotes::install_github("cjcote/britishcharacters)

characters <- read_csv("https://raw.githubusercontent.com/cjcote/blog/master/public/characters.csv")

#or load from package {britishcharacters} characters <- britishcharacters::characters

characters

## # A tibble: 9,932 x 4
##    character      show  season episode
##    <chr>          <chr>  <dbl>   <dbl>
##  1 Brenda Blethyn Vera       1       1
##  2 David Leon     Vera       1       1
##  3 Wunmi Mosaku   Vera       1       1
##  4 Paul Ritter    Vera       1       1
##  5 Neil Armstrong Vera       1       1
##  6 Juliet Aubrey  Vera       1       1
##  7 Craig Conway   Vera       1       1
##  8 Philip Correia Vera       1       1
##  9 Sam Fender     Vera       1       1
## 10 Murray Head    Vera       1       1
## # … with 9,922 more rows
…
What episode has the most people?

characters %>% 
  group_by(show, season, episode) %>% 
  count(sort = TRUE)

## # A tibble: 601 x 4
## # Groups:   show, season, episode [601]
##    show             season episode     n
##    <chr>             <dbl>   <dbl> <int>
##  1 Midsomer Murders      1       2   165
##  2 Midsomer Murders      1       3   165
##  3 Midsomer Murders      1       4   165
##  4 Midsomer Murders      1       1   163
##  5 Midsomer Murders      1       5   148
##  6 Midsomer Murders      1       6   120
##  7 Midsomer Murders      1       7    75
##  8 Inspector Morse       1       1    60
##  9 Dr Who                1       1    48
## 10 Dr Who                1       4    47
## # … with 591 more rows
…
